Introducing the adas.utils package – RTUG
…
Then if needed (because the analysis show low p-value for the quadratic term) you can add axial points to get a central composite design:

fp_design_matrix(3) %>% 
  fp_augment_center(rep=3) %>% 
  fp_augment_axial(rep=2)
#>  Factorial Plan Design Matrix
#>  Defining Relationship:  ~ A * B * C 
#>  Factors:  A B C 
#>  Levels:  -1 1 
#>  Fraction:  NA 
#>  Type:  composite 
#>  
#> # A tibble: 35 × 8
#>    StdOrder RunOrder .treat  .rep     A     B     C Y    
#>       <int>    <int> <chr>  <int> <dbl> <dbl> <dbl> <lgl>
#>  1        1        5 (1)        1    -1    -1    -1 NA   
#>  2        2        1 a          1     1    -1    -1 NA   
#>  3        3        6 b          1    -1     1    -1 NA   
#>  4        4        7 ab         1     1     1    -1 NA   
#>  5        5        2 c          1    -1    -1     1 NA   
#>  6        6        8 ac         1     1    -1     1 NA   
#>  7        7        3 bc         1    -1     1     1 NA   
#>  8        8        4 abc        1     1     1     1 NA   
#>  9        9       11 center     1     0     0     0 NA   
#> 10       10        9 center     2     0     0     0 NA   
#> # ℹ 25 more rows
…
The design matrix can be converted to a tibble thanks to the proper as_tibble.design.matrix S3 method:

am %>% as_tibble()
#> # A tibble: 42 × 3
#>    Effect.x Effect.y generator
#>    <chr>    <chr>    <chr>    
#>  1 A        BC       ABC      
#>  2 A        D        AD       
#>  3 A        ABCD     BCD      
#>  4 B        AC       ABC      
#>  5 B        ABD      AD       
#>  6 B        CD       BCD      
#>  7 AB       C        ABC      
#>  8 AB       BD       AD       
#>  9 AB       ACD      BCD      
#> 10 C        AB       ABC      
#> # ℹ 32 more rows
…
