mdbplyr: a tidy interface to MongoDB – RTUG
…
Supported verbs

Each subsection below shows one of the supported dplyr-like verbs on the starwars collection.

filter()

starwars_tbl |>
  filter(species == "Droid", height > 100) |>
  collect()

# A tibble: 87 × 15
   `_id`     name  height  mass hair_color skin_color eye_color birth_year sex  
   <chr>     <chr>  <int> <dbl> <chr>      <chr>      <chr>          <dbl> <chr>
 1 69e21c24… Luke…    172    77 blond      fair       blue            19   male 
 2 69e21c24… C-3PO    167    75 <NA>       gold       yellow         112   none 
 3 69e21c24… R2-D2     96    32 <NA>       white, bl… red             33   none 
 4 69e21c24… Dart…    202   136 none       white      yellow          41.9 male 
 5 69e21c24… Leia…    150    49 brown      light      brown           19   fema…
 6 69e21c24… Owen…    178   120 brown, gr… light      blue            52   male 
 7 69e21c24… Beru…    165    75 brown      light      blue            47   fema…
 8 69e21c24… R5-D4     97    32 <NA>       white, red red             NA   none 
 9 69e21c24… Bigg…    183    84 black      light      brown           24   male 
10 69e21c24… Obi-…    182    77 auburn, w… fair       blue-gray       57   male 
# ℹ 77 more rows
# ℹ 6 more variables: gender <chr>, homeworld <chr>, species <chr>,
#   films <list>, vehicles <list>, starships <list>

select()

starwars_tbl |>
  select(name, species, homeworld) |>
  collect()

# A tibble: 87 × 3
   name               homeworld species
   <chr>              <chr>     <chr>  
 1 Luke Skywalker     Tatooine  Human  
 2 C-3PO              Tatooine  Droid  
 3 R2-D2              Naboo     Droid  
 4 Darth Vader        Tatooine  Human  
 5 Leia Organa        Alderaan  Human  
 6 Owen Lars          Tatooine  Human  
 7 Beru Whitesun Lars Tatooine  Human  
 8 R5-D4              Tatooine  Droid  
 9 Biggs Darklighter  Tatooine  Human  
10 Obi-Wan Kenobi     Stewjon   Human  
# ℹ 77 more rows

rename()

starwars_tbl |>
  rename(character_name = name, planet = homeworld) |>
  collect()

# A tibble: 87 × 14
   height  mass hair_color  skin_color eye_color birth_year sex   gender species
    <int> <dbl> <chr>       <chr>      <chr>          <dbl> <chr> <chr>  <chr>  
 1    172    77 blond       fair       blue            19   male  mascu… Human  
 2    167    75 <NA>        gold       yellow         112   none  mascu… Droid  
 3     96    32 <NA>        white, bl… red             33   none  mascu… Droid  
 4    202   136 none        white      yellow          41.9 male  mascu… Human  
 5    150    49 brown       light      brown           19   fema… femin… Human  
 6    178   120 brown, grey light      blue            52   male  mascu… Human  
 7    165    75 brown       light      blue            47   fema… femin… Human  
 8     97    32 <NA>        white, red red             NA   none  mascu… Droid  
 9    183    84 black       light      brown           24   male  mascu… Human  
10    182    77 auburn, wh… fair       blue-gray       57   male  mascu… Human  
# ℹ 77 more rows
# ℹ 5 more variables: films <list>, vehicles <list>, starships <list>,
#   character_name <chr>, planet <chr>

mutate()

starwars_tbl |>
  mutate(height_m = height / 100, bmi_like = mass / (height_m ^ 2)) |>
  select(name, height, mass, height_m, bmi_like) |>
  collect()

# A tibble: 87 × 5
   name               height  mass height_m bmi_like
   <chr>               <int> <dbl>    <dbl> <lgl>   
 1 Luke Skywalker        172    77     1.72 NA      
 2 C-3PO                 167    75     1.67 NA      
 3 R2-D2                  96    32     0.96 NA      
 4 Darth Vader           202   136     2.02 NA      
 5 Leia Organa           150    49     1.5  NA      
 6 Owen Lars             178   120     1.78 NA      
 7 Beru Whitesun Lars    165    75     1.65 NA      
 8 R5-D4                  97    32     0.97 NA      
 9 Biggs Darklighter     183    84     1.83 NA      
10 Obi-Wan Kenobi        182    77     1.82 NA      
# ℹ 77 more rows
…
Trig/hyperbolic: sin(), cos(), tan(), asin(), acos(), atan(), atan2(), sinh(), cosh(), tanh(), asinh(), acosh(), atanh()

Scalar min/max: pmin(), pmax()

String ops: tolower(), toupper(), nchar(), paste(), paste0(), substr(), substring()

Literal vector support for expressions like x %in% c(1, 3, 5)

transmute()

starwars_tbl |>
  transmute(name = name, height_m = height / 100) |>
  collect()

# A tibble: 87 × 2
   name               height_m
   <chr>                 <dbl>
 1 Luke Skywalker         1.72
 2 C-3PO                  1.67
 3 R2-D2                  0.96
 4 Darth Vader            2.02
 5 Leia Organa            1.5 
 6 Owen Lars              1.78
 7 Beru Whitesun Lars     1.65
 8 R5-D4                  0.97
 9 Biggs Darklighter      1.83
10 Obi-Wan Kenobi         1.82
# ℹ 77 more rows
…
summarise()

starwars_tbl |>
  group_by(species) |>
  summarise(
    n = n(),
    avg_height = mean(height),
    max_mass = max(mass)
  ) |>
  arrange(desc(n)) |>
  collect()

# A tibble: 38 × 4
       n avg_height max_mass species 
   <int>      <dbl>    <dbl> <chr>   
 1    35       178     136   Human   
 2     6       131.    140   Droid   
 3     4       175     110   <NA>    
 4     3       209.     82   Gungan  
 5     2       173      80   Zabrak  
 6     2       221      88   Kaminoan
 7     2       168      56.2 Mirialan
 8     2       231     136   Wookiee 
 9     2       179      55   Twi'lek 
10     1       188      NA   Iktotchi
# ℹ 28 more rows
…
